%YAML 1.1
%TAG !u! tag:unity3d.com,2011:
--- !u!114 &11400000
MonoBehaviour:
  m_ObjectHideFlags: 0
  m_CorrespondingSourceObject: {fileID: 0}
  m_PrefabInstance: {fileID: 0}
  m_PrefabAsset: {fileID: 0}
  m_GameObject: {fileID: 0}
  m_Enabled: 1
  m_EditorHideFlags: 0
  m_Script: {fileID: 11500000, guid: cb81a1b143444b939d682ba50855b4c8, type: 3}
  m_Name: support_lv1
  m_EditorClassIdentifier: 
  enumValue: {fileID: 11400000, guid: 78d3626a5b757c54fa63fa9ac1b3f0bc, type: 2}
  weaponType: 0
  projectileType: 0
  displayName: Lv1
  description:
  - Weapon information 1
  - Weapon information 2
  isAuto: 1
  minDamage: 1
  maxDamage: 3
  speed: 50
  fireRate: 1
  maxAmmo: 31
  reloadTime: 2
  range: 10
  price: 0
