%YAML 1.1
%TAG !u! tag:unity3d.com,2011:
--- !u!114 &11400000
MonoBehaviour:
  m_ObjectHideFlags: 0
  m_CorrespondingSourceObject: {fileID: 0}
  m_PrefabInstance: {fileID: 0}
  m_PrefabAsset: {fileID: 0}
  m_GameObject: {fileID: 0}
  m_Enabled: 1
  m_EditorHideFlags: 0
  m_Script: {fileID: 11500000, guid: cb81a1b143444b939d682ba50855b4c8, type: 3}
  m_Name: weapon_smg_m60
  m_EditorClassIdentifier: 
  enumValue: {fileID: 11400000, guid: 4ab7179392f9be042b5652690f3bcdca, type: 2}
  weaponType: 0
  projectileType: 0
  displayName: M60
  description:
  - Line 1
  - Line 2
  isAuto: 1
  minDamage: 1
  maxDamage: 2.7
  speed: 80
  fireRate: 0.08
  maxAmmo: 75
  reloadTime: 2
  range: 10
  price: 10
