%YAML 1.1
%TAG !u! tag:unity3d.com,2011:
--- !u!1001 &8490047258751457042
PrefabInstance:
  m_ObjectHideFlags: 0
  serializedVersion: 2
  m_Modification:
    m_TransformParent: {fileID: 0}
    m_Modifications:
    - target: {fileID: 1261611916245660820, guid: 3711fb3885c84ea438b82241b28271df, type: 3}
      propertyPath: m_LocalScale.x
      value: 0.35
      objectReference: {fileID: 0}
    - target: {fileID: 1261611916245660820, guid: 3711fb3885c84ea438b82241b28271df, type: 3}
      propertyPath: m_LocalScale.y
      value: 0.35
      objectReference: {fileID: 0}
    - target: {fileID: 1261611916245660820, guid: 3711fb3885c84ea438b82241b28271df, type: 3}
      propertyPath: m_LocalScale.z
      value: 0.35
      objectReference: {fileID: 0}
    - target: {fileID: 1587690563432793080, guid: 3711fb3885c84ea438b82241b28271df, type: 3}
      propertyPath: m_Name
      value: zombie_1
      objectReference: {fileID: 0}
    - target: {fileID: 1587690563432793083, guid: 3711fb3885c84ea438b82241b28271df, type: 3}
      propertyPath: m_RootOrder
      value: 0
      objectReference: {fileID: 0}
    - target: {fileID: 1587690563432793083, guid: 3711fb3885c84ea438b82241b28271df, type: 3}
      propertyPath: m_LocalPosition.x
      value: 0
      objectReference: {fileID: 0}
    - target: {fileID: 1587690563432793083, guid: 3711fb3885c84ea438b82241b28271df, type: 3}
      propertyPath: m_LocalPosition.y
      value: 0
      objectReference: {fileID: 0}
    - target: {fileID: 1587690563432793083, guid: 3711fb3885c84ea438b82241b28271df, type: 3}
      propertyPath: m_LocalPosition.z
      value: 0
      objectReference: {fileID: 0}
    - target: {fileID: 1587690563432793083, guid: 3711fb3885c84ea438b82241b28271df, type: 3}
      propertyPath: m_LocalRotation.w
      value: 1
      objectReference: {fileID: 0}
    - target: {fileID: 1587690563432793083, guid: 3711fb3885c84ea438b82241b28271df, type: 3}
      propertyPath: m_LocalRotation.x
      value: 0
      objectReference: {fileID: 0}
    - target: {fileID: 1587690563432793083, guid: 3711fb3885c84ea438b82241b28271df, type: 3}
      propertyPath: m_LocalRotation.y
      value: 0
      objectReference: {fileID: 0}
    - target: {fileID: 1587690563432793083, guid: 3711fb3885c84ea438b82241b28271df, type: 3}
      propertyPath: m_LocalRotation.z
      value: 0
      objectReference: {fileID: 0}
    - target: {fileID: 1587690563432793083, guid: 3711fb3885c84ea438b82241b28271df, type: 3}
      propertyPath: m_LocalEulerAnglesHint.x
      value: 0
      objectReference: {fileID: 0}
    - target: {fileID: 1587690563432793083, guid: 3711fb3885c84ea438b82241b28271df, type: 3}
      propertyPath: m_LocalEulerAnglesHint.y
      value: 0
      objectReference: {fileID: 0}
    - target: {fileID: 1587690563432793083, guid: 3711fb3885c84ea438b82241b28271df, type: 3}
      propertyPath: m_LocalEulerAnglesHint.z
      value: 0
      objectReference: {fileID: 0}
    - target: {fileID: 6630826848273894253, guid: 3711fb3885c84ea438b82241b28271df, type: 3}
      propertyPath: m_Materials.Array.data[0]
      value: 
      objectReference: {fileID: 2100000, guid: dd4b118dfbe07004e9f6205c0b7d6534, type: 2}
    m_RemovedComponents: []
  m_SourcePrefab: {fileID: 100100000, guid: 3711fb3885c84ea438b82241b28271df, type: 3}
