%YAML 1.1
%TAG !u! tag:unity3d.com,2011:
--- !u!114 &11400000
MonoBehaviour:
  m_ObjectHideFlags: 0
  m_CorrespondingSourceObject: {fileID: 0}
  m_PrefabInstance: {fileID: 0}
  m_PrefabAsset: {fileID: 0}
  m_GameObject: {fileID: 0}
  m_Enabled: 1
  m_EditorHideFlags: 0
  m_Script: {fileID: 11500000, guid: 9898f0ebced24e59acc923ba70d5e8e2, type: 3}
  m_Name: assault_lv1
  m_EditorClassIdentifier: 
  enumValue: {fileID: 11400000, guid: 739c38162ccb83742b41e3c625c0157d, type: 2}
  towerPrefab: {fileID: 3677258560958360516, guid: fdbab37430e9ea14a8faf8efdb35abd4, type: 3}
  displayName: assault_lv1
  description:
  - Line 1
  - Line 2
  - Line 3
  forSell: 0
  price: 70
  upgradeTowers:
  - {fileID: 11400000, guid: 405ec29b87f4f664883dbf7f39d0889a, type: 2}
  - {fileID: 11400000, guid: fdf9feda4ac84144a84cea2c0bc6bbdf, type: 2}
